60750
60911
60915
61174
61941
56831
57611
57613
62518
62514
58075
59611
59616
59618
59619
58215
54399
61410
58525
59034
59035
61236
43467
60019
59627
59622
61997
62098
58686
58684
58685
58683
59006
59001
59000
58536
58533
62410
61491
62517
62511
56101
60243
57676
60461
58235
58235
59630
59632
57899
59399
58853
59946
59461
58855
57989
59018
62131
58542
53434
60278
47015
61255
56661
60079
60077
58046
62209
62208
58220
58225
62302
33551
59797
59796
59795
59794
59793
59792
59799
59798
59574
59970
52822
59207
59206
56471
56309
56783
58035
58781
62337
58566
33712
61011
59216
61492
56465
49447
56864
60055
62400
61906
60454
58970
44749
44747
62106
62101
59995
59994
59199
60201
61269
61685
59510
60428
62170
62174
59425
56408
60216
60214
61297
57209
61926
58916
58915
44548
58593
62162
62508
61403
57749
57216
60151
61939
56965
56962
59741
58844
57318
62629
58439
61740
59250
59255
55732
56428
56428
55557
53955
55957
60419
61639
61946
60091
62365
62366
62367
61631
58200
57886
56972
59731
59889
57955
57952
58606
62145
62146
62148
62638
62540
58421
61548
59962
59956
58332
61045
61706
60177
60176
60175
61957
56941
44732
44731
44730
60607
60600
60609
59098
38040
62604
58418
61412
62541
60388
60166
44720
44721
59711
59710
53657
62617
59288
61393
47374
47375
61716
61717
61576
52280
49033
59699
60597
60596
60590
58650
59706
62448
60627
60339
62199
49965
58477
34594
61361
61767
61532
59865
61533
59864
59712
61184
61181
61180
57739
60589
58869
60632
62186
61629
54369
62276
62272
59599
59330
61779
61450
60792
60796
60795
56058
61998
57185
57058
58852
58851
58850
58854
58676
58986
62644
62643
62649
59101
62249
59849
59326
59325
59320
61743
60340
56594
56594
56594
56594
56594
58941
58942
60836
61623
62407
58848
58849
58845
58846
58847
58843
58990
58997
58999
48315
62652
58445
62258
61737
60336
60338
62222
56071
62406
58835
58837
58308
62269
38755
61408
60811
60370
60494
61818
58828
58829
58826
58827
58825
60674
54507
58313
62231
62234
61780
59372
61336
61335
62536
61804
60752
60751
60321
58146
54518
59144
58363
58364
54335
58871
58870
55464
59705
61470
60300
60873
62434
59179
58379
62214
62215
62216
61385
62692
50024
60991
55217
60842
59901
60510
60192
60197
62594
59162
54790
60885
60889
60220
58742
58741
59693
59694
59695
62004
55194
59708
61671
61670
61675
58957
59709
61586
61856
61853
60508
60509
60507
58179
61364
59704
48736
58754
58751
58752
58753
59400
61667
61663
61592
61596
62435
60402
60401
56507
56985
60539
60716
61182
54642
62024
60715
61183
57177
54873
60702
57398
53476
62129
58730
61795
58922
59398
59392
59397
59062
59069
60343
62522
60550
56706
60742
60743
60744
60745
60747
57163
57166
60779
60770
60774
57380
57380
58388
58386
45738
58705
58704
58703
58702
57831
62041
59070
59071
62454
55158
60943
56788
57625
58138
54457
58135
58136
52672
60764
57840
59442
59043
59042
61089
61081
61082
56548
56541
61881
60289
57633
57631
57631
57631
57631
57631
62538
60025
60024
62283
62282
62280
49360
60235
33650
59668
58503
59052
60746
56550
50659
61169
56735
57600
62521
62529
60748
60749
58886
58887
59935
62074
62207
61628
59020
59025
50397
