55617
55612
55343
60912
60914
60918
61170
48897
61176
61177
61206
61207
61204
61205
61202
61203
61200
61201
61208
61209
43471
57297
59652
55834
62083
56832
56835
55839
57616
59653
51113
52640
60913
52138
60002
60006
60005
60004
60008
54024
46310
59568
59569
61411
58073
59562
59612
59610
59614
57877
57878
58210
53518
54396
54396
59928
54177
59924
59925
59926
59927
59920
59921
59922
59923
62566
62088
62082
58695
58694
58697
58692
61748
58699
58523
58522
58521
58520
58520
58520
58527
58526
58524
59032
59037
61195
61193
61198
61199
50416
55338
55622
52818
60902
60903
60900
60901
60904
61233
59886
59884
43461
56136
56828
57660
57665
57668
62509
52104
62500
62501
62502
57950
57406
60018
60016
60010
60012
60013
60130
45301
44785
57080
57083
58065
57088
61773
53728
59629
59628
59626
58208
58209
58209
53507
58205
56837
58280
58286
62564
58287
59489
59488
58936
59486
59485
59484
62096
62097
62094
61014
62090
62091
58687
58682
58688
62311
59559
59558
59009
58538
58537
62063
55106
62141
61498
62143
62143
62143
61602
61490
60937
61600
62218
61228
61229
61224
61226
57821
61223
62382
62219
61657
62381
43321
43452
55634
60007
56100
56677
56858
57270
57271
60248
60244
60247
60246
57671
52119
57412
57413
57416
60069
60068
60065
60067
42814
57093
58050
60466
60460
60463
60462
60469
60468
58233
58940
58230
59631
58949
58948
62319
57896
57897
53575
57893
57890
54494
59949
59942
48051
57980
59391
59462
59010
59014
59016
59017
59019
59548
59549
58549
58548
62137
62136
62132
58541
58540
58543
58545
58544
58547
58546
59495
59496
59497
59490
59491
59492
59498
59499
50871
60276
56648
60271
55139
55133
56861
52360
61035
61036
61031
61030
61032
60920
60921
60923
60924
58737
61258
61251
61250
61253
61257
61256
55793
55794
55799
43449
43442
60773
56447
56846
56849
57245
55861
60257
60254
60255
60252
57648
57644
57642
57641
57640
60785
60787
60780
60783
60071
58041
58042
58043
58049
61601
60476
60477
60470
58218
60478
53746
57420
53748
58221
58222
58226
58227
58958
61928
62304
62305
62301
57135
59791
59790
57930
59572
59571
59570
59576
59579
62126
62127
62122
62123
58552
58553
58550
59973
55121
61798
61028
61026
61024
59205
59204
59200
61248
61249
61240
35677
55786
55786
55786
58325
58324
56652
58323
56654
57782
58322
56301
56300
57785
60269
55877
55874
56785
57651
57652
57657
60047
60045
60048
61041
61734
61733
57255
57256
57250
61047
59580
57430
53954
58963
53221
58966
58783
54203
62339
61901
62330
61900
54688
44758
44754
44756
44751
44750
44753
61909
59780
59781
59782
59783
59784
59785
59789
57921
57928
58565
58564
58563
58562
59564
59565
59566
59567
59560
59561
58569
58568
62111
33897
33897
59966
59967
59968
59969
62324
62325
61013
61010
59038
59039
59217
59214
59215
59212
59210
59211
61497
61138
61495
61493
59218
59219
59031
62598
56460
55661
56869
51812
51812
60277
55843
51815
60273
60279
56867
61276
61272
61279
60392
60053
60054
57221
57225
58027
58029
61697
53943
62326
62327
58791
58972
61859
58482
45347
59770
57911
57917
61749
58573
58575
58576
58578
58579
59517
62104
59999
59998
59996
59991
57546
59993
59992
62279
59191
59190
59193
59192
59198
59223
59222
59221
59220
59227
59226
59225
59224
59229
59228
61485
61486
61487
35076
35076
43368
62221
61006
61007
60203
55855
55858
56321
56634
61262
61263
59519
52372
39834
58019
58016
58015
58013
60429
61915
61913
53536
61911
60425
60426
58909
58908
62354
53209
58905
58907
58906
62558
60345
58094
59760
57908
57904
57907
62555
61232
59508
58588
58585
58584
58581
58583
58582
62172
59989
59987
59984
59982
59983
59981
59186
59184
59182
59183
59180
50307
59424
59234
59235
59236
59237
59230
59231
59232
59233
59420
59890
59891
61444
59892
61071
61072
61075
61077
61079
61078
60212
60215
60218
56627
61295
61294
61296
61293
61292
60123
60125
60126
57759
57758
43116
57753
57577
61971
57261
61924
60436
62342
62343
58918
62344
62345
58910
58911
58917
62620
48029
59759
59758
59752
57978
57973
57972
57975
57974
57974
57977
59951
58598
58597
58594
58590
62163
61489
59953
61641
58251
58251
61483
58253
61793
61793
59249
59248
59244
59247
59651
61458
62503
61645
61642
61643
61063
61060
61061
61064
61065
61068
61069
60883
60882
60880
60887
60886
60229
60227
60226
60225
60224
60223
60221
61288
61289
61286
61287
61283
60089
60088
60087
56293
56292
56291
51996
60997
56340
57214
57743
57741
57566
57565
60150
60152
61934
62375
53264
59389
61553
61407
44712
59742
59743
58619
58618
58615
58614
58616
58613
58612
62489
62488
57960
62487
58296
58929
59520
62157
61008
58840
60202
58430
58432
60208
60896
59252
59257
60897
50810
60890
62275
62128
60891
61058
61056
61055
61054
61053
60238
61546
60898
60899
60230
55555
55554
60237
61417
61416
62271
62655
46381
56600
56602
56602
52323
57009
57555
57004
57007
57558
60146
60147
60144
60143
60141
60148
60149
61949
57487
57489
61940
61944
61947
60097
60090
60092
60093
62368
61468
56741
56743
56971
56978
57880
59734
59737
59738
59888
57956
57954
58608
58609
58604
62278
62490
62496
62497
62494
58930
58931
58932
58933
58934
62140
62142
61384
62149
58426
58427
58422
58423
58420
60879
61861
59263
35039
35036
59955
59954
58336
58337
61048
58335
61040
61044
46852
46559
61550
55547
62095
62093
58338
55946
60393
58926
57763
56366
57545
57014
57015
57540
57543
57493
57496
57495
61952
61953
61950
57499
61956
61954
61955
61916
61917
59726
59725
45027
58639
57944
61918
57947
58633
58632
58631
58637
58636
58635
58634
60605
60604
60606
60601
60603
60602
54269
33744
33744
59099
33253
60207
62600
62606
62605
59555
59554
59557
42741
42741
59556
59550
59553
59552
50340
58413
58412
58411
58410
58416
58415
58414
61415
62359
61414
61147
59271
59272
59273
59275
61419
61383
61382
61381
61380
61389
62599
61701
61562
61561
60549
61565
61569
61568
43739
60380
60381
55970
55978
57711
57710
56379
56370
57022
57533
57025
61967
61966
61961
61960
60167
60163
58347
58346
44728
44729
44729
56959
54641
44727
53076
58624
58626
58627
58620
58621
58622
59716
58349
59915
60616
60617
60614
60615
60613
60610
60611
60618
60619
54929
62614
62615
62613
59765
58408
58409
58404
58405
58406
58407
58400
58401
58402
58403
61963
61962
59285
59284
59287
59286
59280
59283
61969
61968
61390
61391
61392
61394
61396
61398
61715
61016
61578
61574
61570
61572
55704
60378
57156
60377
60371
60373
60372
57703
57707
57526
60119
59502
61972
61973
61974
60111
60110
60115
60116
59507
61353
55034
60595
56921
56920
60599
60598
57034
57038
58653
58652
58654
58657
58659
58658
59702
59703
58879
58878
62447
62440
54935
60629
60628
62198
62191
62197
62196
56954
60766
56951
58479
40295
62266
62261
62263
62262
58471
59294
59295
59292
59436
59437
59435
61369
59430
43453
61362
59869
59868
61760
61769
61509
61508
59713
61503
61505
61504
60803
59863
55777
60369
60366
60367
60360
60361
56022
61989
43067
42916
57190
57194
56939
60582
60583
56932
56930
56931
57040
57048
58643
58640
58862
59843
59842
59847
57999
53632
57991
62453
60630
60633
62187
62182
62183
54763
62189
54767
61102
59119
59118
54362
59115
59117
59116
58468
58462
58463
58466
58467
58465
59591
59593
59597
59596
61376
61372
61370
61371
59335
61518
61452
61513
61510
61511
61516
61514
61515
60793
60791
54637
60790
60797
61454
55765
60794
56584
56589
61196
61197
60358
61192
61103
61191
60351
55906
60356
60355
57720
57726
57727
60825
60824
60827
60826
60823
60137
60135
60134
60132
59917
60139
59916
61999
61994
61995
61990
56905
56904
57188
52481
57186
57180
57500
57502
57504
53023
57984
54558
58677
58985
58984
62647
62646
62641
62648
58189
58182
59854
59857
59859
58457
58455
58453
58451
59106
59104
59105
58329
58328
59100
62242
62240
62247
62246
62245
62248
59582
59583
59581
59586
59587
59584
59585
59848
61951
61149
50257
61148
61699
61698
61348
61343
61342
61347
61346
61344
59327
59322
59321
61746
59328
59329
55935
55240
58944
52923
61526
61523
60837
60122
60124
59840
60127
59635
43515
56913
56914
56915
62314
62317
61835
61837
61836
61831
61832
57892
61838
62312
57315
58660
58842
56759
58992
58993
58996
58994
58995
58998
54961
62651
61851
62659
62659
61850
58292
58198
58199
58195
59823
59822
59825
59824
59826
59829
59828
61858
58440
59139
59131
59130
59137
59136
59135
59134
61758
62254
62255
62250
62251
62252
62253
60136
61688
61683
61680
61687
53405
59311
59310
61755
61756
61757
58307
61759
53403
61357
61350
61351
58001
61359
55030
60332
60335
55925
56213
56211
56215
59876
61139
56694
52932
60802
60800
60806
60489
60485
60481
60480
53996
53994
59872
61826
61825
61822
61823
61828
61829
56075
57075
58838
57305
57302
57303
57300
58831
58832
58834
60138
59545
59542
59124
59125
59126
59127
59121
59541
59129
58306
58309
54353
54353
62229
61400
54491
61401
38756
62223
62225
61150
62227
62226
61151
61404
61406
62134
61409
61158
61159
62139
62138
59308
59309
59305
59306
59307
59301
61888
61321
61324
61326
61328
60326
60328
60329
60815
60817
60810
56683
61358
60498
60490
60491
60492
60496
60497
53987
56206
61234
61813
61812
59861
57337
57335
58823
58824
60672
60673
60676
46691
60678
59860
45745
57529
59808
59807
59806
59805
59801
59155
59154
59157
59156
59159
58318
53411
58314
58315
58316
58317
61970
62239
62233
62237
61977
61978
61979
61784
61034
61788
62645
59373
47799
59377
35124
62662
55497
55016
55011
61332
61337
61338
61339
60316
60312
60311
60863
60862
60864
57145
60927
62534
56276
62169
57801
60757
60756
61806
60755
61802
61803
52598
60754
57328
62428
57327
62421
57323
60684
60680
60327
56890
60758
58148
58147
58143
58142
33432
33432
59810
59811
59815
59142
59143
59140
59141
58499
58498
62203
62202
59543
60814
50212
58765
58764
58767
58766
58874
58876
59369
59362
59363
59360
59367
59364
59365
59700
59701
59875
59870
34604
50528
61659
61658
61309
61308
61307
61306
61305
61303
61302
61301
60309
58362
60305
60306
60872
60871
60878
58661
57793
60622
59881
56262
57683
57689
62228
56085
62439
57351
62437
60699
60232
60694
60692
60693
60691
58156
58155
58152
58484
58486
54652
59177
59176
59175
59174
58488
59171
59170
58373
62695
62696
54788
51572
51572
51572
62661
62660
59680
59429
59428
59359
61318
61648
61445
61311
61312
60998
58679
61447
61460
61461
60992
60996
61443
60848
60846
60841
60840
59460
56529
56744
57698
56740
57695
57696
57697
57690
57123
60516
60511
60513
61868
61867
61864
61865
60194
62415
59638
61938
57339
58478
62597
62597
62596
62596
58162
58167
58166
58165
60735
60737
60736
60739
60738
53847
54828
54532
59169
58345
58344
54643
59160
59163
59165
58348
60884
58740
58747
58745
58749
58748
59697
59341
59344
62005
62006
34447
55197
55046
61673
61676
61453
58956
60988
60989
60980
60981
60984
58955
58952
58953
60858
60859
58950
60855
60856
60857
38957
61402
38958
58500
55991
56249
57118
57110
56758
60506
60504
60505
60502
60503
60500
60501
61194
57598
57598
57597
57593
57591
60182
60183
60180
60181
60184
60185
45169
45160
62438
61843
58177
58171
58178
52632
62589
60724
60723
57377
57376
53328
58350
58351
58352
58354
58355
58356
58357
59173
57805
58750
62288
58334
59403
59404
59408
61764
62017
62011
62019
55187
59402
61664
61665
61666
61660
61668
61448
61449
61116
61117
61115
61113
52955
61597
61598
61599
59563
55351
55232
55236
55236
56506
58483
56762
56762
56987
56984
60538
61846
60533
60537
60536
60535
57582
57583
57587
58244
61937
45571
59573
57107
53134
57108
42727
58100
58103
54483
58105
54487
54487
54487
58108
62577
62571
62570
62573
62572
54805
60717
60714
60719
57109
57360
57363
57366
57369
57369
57369
34861
58106
44152
62124
62125
58729
57814
57811
58721
58720
61215
61214
59418
59419
59415
59410
62023
62021
62020
61189
60712
61610
61529
61618
61121
61126
61124
60362
60526
60527
56774
56776
52435
56773
45140
57174
58110
58119
54471
62569
60272
62565
62562
62563
62560
62561
60708
60704
60705
60700
60701
57391
48286
62702
62703
48289
62706
62704
62705
44149
62513
44631
59649
59646
59641
59642
58927
58738
58739
62383
58732
58733
58925
58734
61794
61794
58924
61983
58923
61796
58921
61790
58920
54123
46803
59393
59396
59395
59394
62035
62036
59065
59064
59066
59060
59063
61428
61429
61422
61423
61420
61421
61427
61425
62625
62624
62624
62627
62626
56566
61135
61137
60958
61132
60951
56709
60553
60552
56702
62393
62392
61987
49128
58497
57162
58496
58129
58128
58122
62356
62559
62553
62556
62554
60778
54866
60771
60775
60777
60776
53803
58383
58380
58385
60588
49839
57513
58707
58706
58701
58259
58709
57834
57837
57830
59551
58863
62049
58861
59844
59076
59075
59072
61637
61634
61633
61632
57781
61091
61090
56572
56577
61140
61144
60944
60942
60542
56719
60545
43220
61893
61892
61890
61897
61894
60266
62512
62623
62623
46611
53108
57629
57624
57626
57621
62545
62543
60768
60769
54853
60767
60765
58841
62188
53492
48793
34835
58712
58715
58716
58717
58718
58719
59666
58248
60359
57843
57842
57846
58394
58395
58396
58397
58390
58391
57868
58398
58399
59446
59441
59440
59919
59918
62328
62059
62052
62053
62474
59047
59045
59044
61430
61433
61432
61434
61437
61965
61965
55413
56149
56148
56491
55368
61801
61088
61085
61083
61152
61153
61156
61154
61155
60973
60974
43897
60571
60570
62544
59138
62478
59111
60282
60284
60287
57148
56724
56723
57140
57143
53717
57458
60027
60026
60022
60028
60759
58898
58896
58895
58894
58893
45137
45135
62289
61544
62281
58097
58092
58091
60895
55881
59674
59675
59670
59671
59673
59678
59679
58270
58278
52501
57852
57851
59669
59456
59457
59458
59459
62060
62069
57436
44885
59058
59055
59056
59057
59051
58967
58965
58964
58969
58516
56488
58968
51388
58517
58782
58515
60965
60960
60961
61166
61165
61160
60568
61217
61216
61211
61210
61212
60560
60564
58518
62332
62334
56159
60528
46326
60529
56809
60292
60293
60291
60295
56738
57606
57605
57463
57467
57466
57465
57464
60037
58888
58889
58880
58883
58884
62299
62290
62291
62292
62293
62296
58080
58081
58083
54437
59601
59607
57865
57865
57865
57865
57865
58268
58264
58265
58266
58267
58263
59930
59937
59934
62468
59939
61770
62070
62071
61771
62076
62077
62078
61776
59102
61774
61775
54338
61986
62204
59103
58491
59029
58490
58513
59023
59022
59024
59027
59026
58495
57559
60753
57003
34140
60414
